"Geographic name, english","Provincial / territory abbreviation, english","Population, 2016","Land area in square kilometres, 2016","Population density per square kilometre, 2016"
Canada,,35151728,8965588.85,3.9
Newfoundland and Labrador,N.L.,519716,370514.08,1.4
Prince Edward Island,P.E.I.,142907,5686.03,25.1
Nova Scotia,N.S.,923598,52942.27,17.4
New Brunswick,N.B.,747101,71388.81,10.5
Quebec,Que.,8164361,1356625.27,6.0
Ontario,Ont.,13448494,908699.33,14.8
Manitoba,Man.,1278365,552370.99,2.3
Saskatchewan,Sask.,1098352,588243.54,1.9
Alberta,Alta.,4067175,640330.46,6.4
British Columbia,B.C.,4648055,922503.01,5.0
Yukon,Y.T.,35874,474712.68,0.1
Northwest Territories,N.W.T.,41786,1143793.86,0.0
Nunavut,Nvt.,35944,1877778.53,0.0
